278
349
399
856
681
337
447
822
240
656
438
255
415
115
489
236
1175
118
1769
253
224
575
487
1083
560
561
281
160
358
386
1061
72
283
140
336
604
403
309
385
183
254
452
596
1147
381
566
354
188
1041
485
1270
337
157
1001
558
315
393
675
259
620
277
146
128
871
664
571
156
409
533
514
231
419
669
243
571
